test@gmail.com,2015-10-07 23:15:10
test@gmail.com,2015-10-07 23:15:14
test@gmail.com,2015-10-07 23:18:00
test@gmail.com,2015-10-07 23:18:46
testPost@gmail.com,2015-10-07 23:19:06
COUCOU@gmail.com,2015-10-07 23:24:54
test@gmail.com,2015-10-07 23:26:27
test@gmail.com,2015-10-07 23:29:20
test.ok@gmail.com,2015-10-07 23:40:59
testsec@gmail.com,2015-10-08 00:15:57
test2215@gmail.com,2015-10-08 20:15:59
test@gmail.com,2015-10-08 20:19:41
