
2015-11-17 15:53:47
------
lh164@gmail.com

lh1640

lh1640
------

2015-11-17 15:53:48
------
lh164@gmail.com

lh1640

lh1640
------

2015-11-17 15:54:07
------
lh164@gmail.com

kjk

lkjkj
------

2015-11-17 15:54:08
------
lh164@gmail.com

kjk

lkjkj
------

2015-11-17 15:54:09
------
lh164@gmail.com

kjk

lkjkj
------
